Copyright 1986-2017 Xilinx, Inc. All Rights Reserved.
--------------------------------------------------------------------------------------
| Tool Version : Vivado v.2017.4.1 (win64) Build 2117270 Tue Jan 30 15:32:00 MST 2018
| Date         : Tue May 22 14:15:49 2018
| Host         : DESKTOP-I2Q6L31 running 64-bit major release  (build 9200)
| Command      : report_control_sets -verbose -file top_level_control_sets_placed.rpt
| Design       : top_level
| Device       : xc7k70t
--------------------------------------------------------------------------------------

Control Set Information

Table of Contents
-----------------
1. Summary
2. Flip-Flop Distribution
3. Detailed Control Set Information

1. Summary
----------

+----------------------------------------------------------+-------+
|                          Status                          | Count |
+----------------------------------------------------------+-------+
| Number of unique control sets                            |    21 |
| Unused register locations in slices containing registers |    67 |
+----------------------------------------------------------+-------+


2. Flip-Flop Distribution
-------------------------

+--------------+-----------------------+------------------------+-----------------+--------------+
| Clock Enable | Synchronous Set/Reset | Asynchronous Set/Reset | Total Registers | Total Slices |
+--------------+-----------------------+------------------------+-----------------+--------------+
| No           | No                    | No                     |              35 |           17 |
| No           | No                    | Yes                    |               0 |            0 |
| No           | Yes                   | No                     |              33 |           15 |
| Yes          | No                    | No                     |             265 |           64 |
| Yes          | No                    | Yes                    |               0 |            0 |
| Yes          | Yes                   | No                     |              24 |            8 |
+--------------+-----------------------+------------------------+-----------------+--------------+


3. Detailed Control Set Information
-----------------------------------

+----------------+-----------------------------------------------+--------------------------------------+------------------+----------------+
|  Clock Signal  |                 Enable Signal                 |           Set/Reset Signal           | Slice Load Count | Bel Load Count |
+----------------+-----------------------------------------------+--------------------------------------+------------------+----------------+
|  clk_IBUF_BUFG | adder_pipe_0/read_0/address_led_ff_reg[0][0]  |                                      |                1 |              4 |
|  clk_IBUF_BUFG | adder_pipe_0/read_0/address_reg[3]            | rst_IBUF                             |                1 |              4 |
|  clk_IBUF_BUFG | adder_pipe_0/round_0/sticky_i_1_n_0           |                                      |                1 |              4 |
|  clk_IBUF_BUFG | adder_pipe_0/carry_0/z_e[4]_i_1_n_0           |                                      |                3 |              5 |
|  clk_IBUF_BUFG | adder_pipe_0/round_0/z_e[4]_i_1__1_n_0        |                                      |                2 |              5 |
|  clk_IBUF_BUFG | seg7_0/ce                                     | rst_IBUF                             |                2 |              6 |
|  clk_IBUF_BUFG | adder_pipe_0/round_0/z_m[9]_i_1__0_n_0        |                                      |                4 |             10 |
|  clk_IBUF_BUFG | adder_pipe_0/carry_0/round_bit_i_1_n_0        |                                      |                3 |             13 |
|  clk_IBUF_BUFG | adder_pipe_0/apecial_0/z[14]_i_2_n_0          | adder_pipe_0/apecial_0/z[14]_i_1_n_0 |                5 |             14 |
|  clk_IBUF_BUFG | adder_pipe_0/carry_0/sum[14]_i_1__0_n_0       |                                      |                3 |             16 |
|  clk_IBUF_BUFG | adder_pipe_0/put_z_0/E[0]                     |                                      |                2 |             16 |
|  clk_IBUF_BUFG | adder_pipe_0/round_0/z_reg[0][0]              |                                      |                5 |             16 |
|  clk_IBUF_BUFG | adder_pipe_0/normalise_0/round_bit_i_1__0_n_0 |                                      |                6 |             18 |
|  clk_IBUF_BUFG | adder_pipe_0/align_0/y_m[13]_i_1_n_0          |                                      |                6 |             19 |
|  clk_IBUF_BUFG | adder_pipe_0/align_0/x_m[13]_i_1_n_0          |                                      |                6 |             19 |
|  clk_IBUF_BUFG | adder_pipe_0/add_0/sum[14]_i_1_n_0            |                                      |                5 |             21 |
|  clk_IBUF_BUFG | adder_pipe_0/read_0/y_e[4]_i_1_n_0            |                                      |                4 |             32 |
|  clk_IBUF_BUFG | adder_pipe_0/apecial_0/y_e[4]_i_1__0_n_0      |                                      |                6 |             32 |
|  clk_IBUF_BUFG |                                               | rst_IBUF                             |               15 |             33 |
|  clk_IBUF_BUFG |                                               |                                      |               17 |             35 |
|  clk_IBUF_BUFG | adder_pipe_0/add_0/x_s_i_1_n_0                |                                      |                7 |             35 |
+----------------+-----------------------------------------------+--------------------------------------+------------------+----------------+


+--------+-----------------------+
| Fanout | Number of ControlSets |
+--------+-----------------------+
| 4      |                     3 |
| 5      |                     2 |
| 6      |                     1 |
| 10     |                     1 |
| 13     |                     1 |
| 14     |                     1 |
| 16+    |                    12 |
+--------+-----------------------+


